{
  "@context": "https://raw.githubusercontent.com/codemeta/codemeta/master/codemeta.jsonld",
  "@type": "Code",
  "author": [
    {
      "@id": "http://orcid.org/0000-0003-4564-7206",
      "@type": "Person",
      "email": "purcell@fhi-berlin.mpg.de",
      "name": "Thomas A. R. Purcell",
      "affiliation": "Fritz-Haber-Institute"
    },
    {
      "@id": "http://orcid.org/0000-0001-5099-3029",
      "@type": "Person",
      "email": "luca@fhi-berlin.mpg.de",
      "name": "Luca M. Ghiringhelli",
      "affiliation": "Fritz-Haber-Institute"
    },
    {
      "@id": "http://orcid.org/0000-0003-0635-8364",
      "@type": "Person",
      "email": "christian.carbogno@fhi-berlin.mpg.de",
      "name": "Christian Carbogno",
      "affiliation": "Fritz-Haber-Institute"
    },
    {
      "@type": "Person",
      "email": "scheffler@fhi-berlin.mpg.de",
      "name": "Matthias Scheffler",
      "affiliation": "Fritz-Haber-Institute"
    }
  ],
  "identifier": "",
  "codeRepository": "https://gitlab.com/sissopp_developers/sissopp",
  "datePublished": "2021-09-02",
  "dateModified": "2021-09-02",
  "dateCreated": "2021-09-02",
  "description": "A C++ implementation of SISSO with python bindings",
  "keywords": "SISSO, Symbolic Regression, C++, python",
  "license": "Apache 2.0",
  "title": "SISSO++",
  "version": "v1.0.0"
}
