{
    "desc_dim": 2,
    "n_sis_select": 5,
    "max_rung": 1,
    "n_residual": 1,
    "data_file": "../data_class.csv",
    "data_file_relatice_to_json": true,
    "max_feat_cross_correlation": 0.9,
    "property_key": "prop",
    "leave_out_frac": 0.2,
    "n_models_store": 1,
    "calc_type": "classification",
    "leave_out_inds": [ 2, 3, 4, 6, 21, 23, 30, 38, 39, 52, 53, 61, 76, 82, 83, 45, 47, 48, 49, 66 ],
    "opset": ["mult"],
    "param_opset" : [],
    "fix_intercept": false
}
